…
Since we are playing double header, we multiply the WAR by 2.

And that is it. That is the full process to complete a fantasy football
player’s WAR. Everything is simply repeated for every player until all
relevant names are crunched and a full list of the most important
players emerge.

### Results 2022

    ## # A tibble: 776 × 6
    ##    season player_id player_name          pos   points   war
    ##     <dbl>     <dbl> <chr>                <chr>  <dbl> <dbl>
    ##  1   2022     13699 Evans, Rashaan       LB      227   3.04
    ##  2   2022     13319 Jones, Aaron         RB      202.  2.7 
    ##  3   2022     13404 Ekeler, Austin       RB      270.  2.56
    ##  4   2022     14073 Jacobs, Josh         RB      264.  2.48
    ##  5   2022     13130 McCaffrey, Christian RB      239.  2.12
    ##  6   2022     14218 Okereke, Bobby       LB      191   2.06
    ##  7   2022     11244 Kelce, Travis        TE      247.  1.96
    ##  8   2022     12186 Diggs, Stefon        WR      271.  1.96
    ##  9   2022     11675 Adams, Davante       WR      268.  1.92
    ## 10   2022     14892 Brooks, Jordyn       LB      237   1.92
    ## # ℹ 766 more rows
